{
   "data": [
     {
       "id": "32de7d1e-bc6a-45b2-bb40-67d1c02ee85c",
       "version": "0",
       "type": "Resource",
       "timestamp": "2020-06-30T17:52:45.500Z",
       "auth": {
         "accessor_id": "user-AAAAAAAAAAAA",
         "description": "Event",
         "type": "Client",
         "impersonator_id": null,
         "organization_id": "org-BBBBBBBBBBBB"
       },
       "request": {
         "id": "8b76752a-d499-4504-b0d9-e158cda81d53"
       },
       "resource": {
         "id": "at-CCCCCCCCCCCC",
         "type": "authentication_token",
         "action": "create",
         "meta": null
       }
     },
     {
      "id": "e9f4796e-87f7-485d-8119-04850f658630",
      "version": "0",
      "type": "Resource",
      "timestamp": "2020-06-30T17:52:45.000Z",
      "auth": {
        "accessor_id": "user-AAAAAAAAAAAA",
        "description": "Event",
        "type": "Client",
        "impersonator_id": null,
        "organization_id": "org-BBBBBBBBBBBB"
      },
      "request": {
        "id": "6d395ac8-7a4f-4c78-9b51-5107e39fe7c2"
      },
      "resource": {
        "id": "at-CCCCCCCCCCCC",
        "type": "authentication_token",
        "action": "create",
        "meta": null
      }
    }
   ],
   "pagination": {
     "current_page": 2,
     "prev_page": 1,
     "next_page": null,
     "total_pages": 2,
     "total_count": 3
   }
 }